{
  "settings": {
    "number_of_replicas": 1,
    "number_of_shards": 4
  },
  "mappings": {
    "properties": {
      "@context": {
        "type": "keyword",
        "index": false
      },
      "@id": {
        "type": "keyword"
      },
      "@type": {
        "type": "keyword"
      },
      "dbo:country": {
        "properties": {
          "@id": {
            "type": "keyword"
          },
          "de": {
            "type": "keyword"
          },
          "en": {
            "type": "keyword"
          },
          "fr": {
            "type": "keyword"
          },
          "it": {
            "type": "keyword"
          }
        }
      },
      "dbo:notableWork": {
        "properties": {
          "@id": {
            "type": "keyword"
          },
          "de": {
            "type": "keyword"
          },
          "en": {
            "type": "keyword"
          },
          "fr": {
            "type": "keyword"
          },
          "it": {
            "type": "keyword"
          }
        }
      },
      "dbo:thumbnail": {
        "type": "keyword"
      },
      "dbo:website": {
        "type": "keyword"
      },
      "dct:identifier": {
        "type": "keyword"
      },
      "foaf:primaryTopicOf": {
        "type": "keyword"
      },
      "gnd:abbreviatedNameForTheCorporateBody": {
        "type": "keyword"
      },
      "gnd:benefactor": {
        "properties": {
          "@id": {
            "type": "keyword"
          },
          "de": {
            "type": "keyword"
          },
          "en": {
            "type": "keyword"
          },
          "fr": {
            "type": "keyword"
          },
          "it": {
            "type": "keyword"
          }
        }
      },
      "gnd:biographicalOrHistoricalInformation": {
        "type": "text"
      },
      "gnd:broaderTermGeneral": {
        "properties": {
          "@id": {
            "type": "keyword"
          },
          "de": {
            "type": "keyword"
          },
          "en": {
            "type": "keyword"
          },
          "fr": {
            "type": "keyword"
          },
          "it": {
            "type": "keyword"
          }
        }
      },
      "gnd:broaderTermInstantial": {
        "properties": {
          "@id": {
            "type": "keyword"
          },
          "de": {
            "type": "keyword"
          },
          "en": {
            "type": "keyword"
          },
          "fr": {
            "type": "keyword"
          },
          "it": {
            "type": "keyword"
          }
        }
      },
      "dbo:isil": {
        "type": "keyword"
      },
      "gnd:broaderTermPartitive": {
        "properties": {
          "@id": {
            "type": "keyword"
          },
          "de": {
            "type": "keyword"
          },
          "en": {
            "type": "keyword"
          },
          "fr": {
            "type": "keyword"
          },
          "it": {
            "type": "keyword"
          }
        }
      },
      "gnd:celebratedCorporateBody": {
        "properties": {
          "@id": {
            "type": "keyword"
          },
          "de": {
            "type": "keyword"
          },
          "en": {
            "type": "keyword"
          },
          "fr": {
            "type": "keyword"
          },
          "it": {
            "type": "keyword"
          }
        }
      },
      "gnd:celebratedPerson": {
        "properties": {
          "@id": {
            "type": "keyword"
          },
          "de": {
            "type": "keyword"
          },
          "en": {
            "type": "keyword"
          },
          "fr": {
            "type": "keyword"
          },
          "it": {
            "type": "keyword"
          }
        }
      },
      "gnd:collector": {
        "properties": {
          "@id": {
            "type": "keyword"
          },
          "de": {
            "type": "keyword"
          },
          "en": {
            "type": "keyword"
          },
          "fr": {
            "type": "keyword"
          },
          "it": {
            "type": "keyword"
          }
        }
      },
      "gnd:complexSeeReferenceSubject": {
        "properties": {
          "@id": {
            "type": "keyword"
          },
          "de": {
            "type": "keyword"
          },
          "en": {
            "type": "keyword"
          },
          "fr": {
            "type": "keyword"
          },
          "it": {
            "type": "keyword"
          }
        }
      },
      "gnd:contributingCorporateBody": {
        "properties": {
          "@id": {
            "type": "keyword"
          },
          "de": {
            "type": "keyword"
          },
          "en": {
            "type": "keyword"
          },
          "fr": {
            "type": "keyword"
          },
          "it": {
            "type": "keyword"
          }
        }
      },
      "gnd:contributingPerson": {
        "properties": {
          "@id": {
            "type": "keyword"
          },
          "de": {
            "type": "keyword"
          },
          "en": {
            "type": "keyword"
          },
          "fr": {
            "type": "keyword"
          },
          "it": {
            "type": "keyword"
          }
        }
      },
      "gnd:contributingPlaceOrGeographicName": {
        "properties": {
          "@id": {
            "type": "keyword"
          },
          "de": {
            "type": "keyword"
          },
          "en": {
            "type": "keyword"
          },
          "fr": {
            "type": "keyword"
          },
          "it": {
            "type": "keyword"
          }
        }
      },
      "gnd:corporateBodyIsMember": {
        "properties": {
          "@id": {
            "type": "keyword"
          },
          "de": {
            "type": "keyword"
          },
          "en": {
            "type": "keyword"
          },
          "fr": {
            "type": "keyword"
          },
          "it": {
            "type": "keyword"
          }
        }
      },
      "gnd:curator": {
        "properties": {
          "@id": {
            "type": "keyword"
          },
          "de": {
            "type": "keyword"
          },
          "en": {
            "type": "keyword"
          },
          "fr": {
            "type": "keyword"
          },
          "it": {
            "type": "keyword"
          }
        }
      },
      "gnd:dateOfConferenceOrEvent": {
        "type": "keyword"
      },
      "gnd:dateOfEstablishment": {
        "type": "keyword"
      },
      "gnd:dateOfEstablishmentAndTermination": {
        "type": "keyword"
      },
      "gnd:dateOfTermination": {
        "type": "keyword"
      },
      "gnd:definition": {
        "type": "text"
      },
      "gnd:deprecatedUri": {
        "type": "keyword"
      },
      "gnd:exhibitor": {
        "properties": {
          "@id": {
            "type": "keyword"
          },
          "de": {
            "type": "keyword"
          },
          "en": {
            "type": "keyword"
          },
          "fr": {
            "type": "keyword"
          },
          "it": {
            "type": "keyword"
          }
        }
      },
      "gnd:fieldOfActivity": {
        "type": "keyword"
      },
      "gnd:founder": {
        "properties": {
          "@id": {
            "type": "keyword"
          },
          "de": {
            "type": "keyword"
          },
          "en": {
            "type": "keyword"
          },
          "fr": {
            "type": "keyword"
          },
          "it": {
            "type": "keyword"
          }
        }
      },
      "gnd:gndIdentifier": {
        "type": "keyword"
      },
      "gnd:gndSubjectCategory": {
        "properties": {
          "@id": {
            "type": "keyword"
          },
          "de": {
            "type": "keyword"
          },
          "en": {
            "type": "keyword"
          },
          "fr": {
            "type": "keyword"
          },
          "it": {
            "type": "keyword"
          }
        }
      },
      "gnd:hierarchicalSuperiorOfTheConferenceOrEvent": {
        "properties": {
          "@id": {
            "type": "keyword"
          },
          "de": {
            "type": "keyword"
          },
          "en": {
            "type": "keyword"
          },
          "fr": {
            "type": "keyword"
          },
          "it": {
            "type": "keyword"
          }
        }
      },
      "gnd:hierarchicalSuperiorOfTheCorporateBody": {
        "properties": {
          "@id": {
            "type": "keyword"
          },
          "de": {
            "type": "keyword"
          },
          "en": {
            "type": "keyword"
          },
          "fr": {
            "type": "keyword"
          },
          "it": {
            "type": "keyword"
          }
        }
      },
      "gnd:languageCode": {
        "properties": {
          "@id": {
            "type": "keyword"
          },
          "de": {
            "type": "keyword"
          },
          "en": {
            "type": "keyword"
          },
          "fr": {
            "type": "keyword"
          },
          "it": {
            "type": "keyword"
          }
        }
      },
      "gnd:musician": {
        "properties": {
          "@id": {
            "type": "keyword"
          },
          "de": {
            "type": "keyword"
          },
          "en": {
            "type": "keyword"
          },
          "fr": {
            "type": "keyword"
          },
          "it": {
            "type": "keyword"
          }
        }
      },
      "gnd:occasionOfTheSubjectHeading": {
        "properties": {
          "@id": {
            "type": "keyword"
          },
          "de": {
            "type": "keyword"
          },
          "en": {
            "type": "keyword"
          },
          "fr": {
            "type": "keyword"
          },
          "it": {
            "type": "keyword"
          }
        }
      },
      "gnd:oldAuthorityNumber": {
        "type": "keyword"
      },
      "gnd:precedingConferenceOrEvent": {
        "properties": {
          "@id": {
            "type": "keyword"
          },
          "de": {
            "type": "keyword"
          },
          "en": {
            "type": "keyword"
          },
          "fr": {
            "type": "keyword"
          },
          "it": {
            "type": "keyword"
          }
        }
      },
      "gnd:precedingCorporateBody": {
        "properties": {
          "@id": {
            "type": "keyword"
          },
          "de": {
            "type": "keyword"
          },
          "en": {
            "type": "keyword"
          },
          "fr": {
            "type": "keyword"
          },
          "it": {
            "type": "keyword"
          }
        }
      },
      "gnd:publication": {
        "type": "text"
      },
      "gnd:relatedConferenceOrEvent": {
        "properties": {
          "@id": {
            "type": "keyword"
          },
          "de": {
            "type": "keyword"
          },
          "en": {
            "type": "keyword"
          },
          "fr": {
            "type": "keyword"
          },
          "it": {
            "type": "keyword"
          }
        }
      },
      "gnd:relatedCorporateBody": {
        "properties": {
          "@id": {
            "type": "keyword"
          },
          "de": {
            "type": "keyword"
          },
          "en": {
            "type": "keyword"
          },
          "fr": {
            "type": "keyword"
          },
          "it": {
            "type": "keyword"
          }
        }
      },
      "gnd:relatedPerson": {
        "properties": {
          "@id": {
            "type": "keyword"
          },
          "de": {
            "type": "keyword"
          },
          "en": {
            "type": "keyword"
          },
          "fr": {
            "type": "keyword"
          },
          "it": {
            "type": "keyword"
          }
        }
      },
      "gnd:relatedPlaceOrGeographicName": {
        "properties": {
          "@id": {
            "type": "keyword"
          },
          "de": {
            "type": "keyword"
          },
          "en": {
            "type": "keyword"
          },
          "fr": {
            "type": "keyword"
          },
          "it": {
            "type": "keyword"
          }
        }
      },
      "gnd:relatedSubjectHeading": {
        "properties": {
          "@id": {
            "type": "keyword"
          },
          "de": {
            "type": "keyword"
          },
          "en": {
            "type": "keyword"
          },
          "fr": {
            "type": "keyword"
          },
          "it": {
            "type": "keyword"
          }
        }
      },
      "gnd:relatedTerm": {
        "properties": {
          "@id": {
            "type": "keyword"
          },
          "de": {
            "type": "keyword"
          },
          "en": {
            "type": "keyword"
          },
          "fr": {
            "type": "keyword"
          },
          "it": {
            "type": "keyword"
          }
        }
      },
      "gnd:relatedWork": {
        "properties": {
          "@id": {
            "type": "keyword"
          },
          "de": {
            "type": "keyword"
          },
          "en": {
            "type": "keyword"
          },
          "fr": {
            "type": "keyword"
          },
          "it": {
            "type": "keyword"
          }
        }
      },
      "gnd:spatialAreaOfActivity": {
        "properties": {
          "@id": {
            "type": "keyword"
          },
          "de": {
            "type": "keyword"
          },
          "en": {
            "type": "keyword"
          },
          "fr": {
            "type": "keyword"
          },
          "it": {
            "type": "keyword"
          }
        }
      },
      "gnd:sponsorOrPatron": {
        "properties": {
          "@id": {
            "type": "keyword"
          },
          "de": {
            "type": "keyword"
          },
          "en": {
            "type": "keyword"
          },
          "fr": {
            "type": "keyword"
          },
          "it": {
            "type": "keyword"
          }
        }
      },
      "gnd:succeedingConferenceOrEvent": {
        "properties": {
          "@id": {
            "type": "keyword"
          },
          "de": {
            "type": "keyword"
          },
          "en": {
            "type": "keyword"
          },
          "fr": {
            "type": "keyword"
          },
          "it": {
            "type": "keyword"
          }
        }
      },
      "gnd:succeedingCorporateBody": {
        "properties": {
          "@id": {
            "type": "keyword"
          },
          "de": {
            "type": "keyword"
          },
          "en": {
            "type": "keyword"
          },
          "fr": {
            "type": "keyword"
          },
          "it": {
            "type": "keyword"
          }
        }
      },
      "gnd:succeedingPlaceOrGeographicName": {
        "properties": {
          "@id": {
            "type": "keyword"
          },
          "de": {
            "type": "keyword"
          },
          "en": {
            "type": "keyword"
          },
          "fr": {
            "type": "keyword"
          },
          "it": {
            "type": "keyword"
          }
        }
      },
      "gnd:temporaryNameOfTheConferenceOrEvent": {
        "type": "keyword"
      },
      "gnd:temporaryNameOfTheCorporateBody": {
        "type": "keyword"
      },
      "gnd:topic": {
        "type": "keyword"
      },
      "owl:sameAs": {
        "type": "keyword"
      },
      "rdfs:label": {
        "type": "text"
      },
      "schema:alternateName": {
        "type": "text"
      },
      "schema:description": {
        "properties": {
          "de": {
            "type": "text"
          },
          "en": {
            "type": "text"
          },
          "fr": {
            "type": "text"
          },
          "it": {
            "type": "text"
          }
        }
      },
      "schema:endDate": {
        "type": "text"
      },
      "schema:location": {
        "properties": {
          "@id": {
            "type": "keyword"
          },
          "de": {
            "type": "keyword"
          },
          "en": {
            "type": "keyword"
          },
          "fr": {
            "type": "keyword"
          },
          "it": {
            "type": "keyword"
          }
        }
      },
      "schema:name": {
        "properties": {
          "de": {
            "type": "text"
          },
          "en": {
            "type": "text"
          },
          "fr": {
            "type": "text"
          },
          "it": {
            "type": "text"
          }
        }
      },
      "schema:organizer": {
        "properties": {
          "@id": {
            "type": "keyword"
          },
          "de": {
            "type": "keyword"
          },
          "en": {
            "type": "keyword"
          },
          "fr": {
            "type": "keyword"
          },
          "it": {
            "type": "keyword"
          }
        }
      },
      "schema:startDate": {
        "type": "text"
      },
      "wdt:P1037": {
        "properties": {
          "@id": {
            "type": "keyword"
          },
          "de": {
            "type": "keyword"
          },
          "en": {
            "type": "keyword"
          },
          "fr": {
            "type": "keyword"
          },
          "it": {
            "type": "keyword"
          }
        }
      },
      "wdt:P131": {
        "properties": {
          "@id": {
            "type": "keyword"
          },
          "de": {
            "type": "keyword"
          },
          "en": {
            "type": "keyword"
          },
          "fr": {
            "type": "keyword"
          },
          "it": {
            "type": "keyword"
          }
        }
      },
      "wdt:P136": {
        "properties": {
          "@id": {
            "type": "keyword"
          },
          "de": {
            "type": "keyword"
          },
          "en": {
            "type": "keyword"
          },
          "fr": {
            "type": "keyword"
          },
          "it": {
            "type": "keyword"
          }
        }
      },
      "wdt:P137": {
        "properties": {
          "@id": {
            "type": "keyword"
          },
          "de": {
            "type": "keyword"
          },
          "en": {
            "type": "keyword"
          },
          "fr": {
            "type": "keyword"
          },
          "it": {
            "type": "keyword"
          }
        }
      },
      "wdt:P1454": {
        "properties": {
          "@id": {
            "type": "keyword"
          },
          "de": {
            "type": "keyword"
          },
          "en": {
            "type": "keyword"
          },
          "fr": {
            "type": "keyword"
          },
          "it": {
            "type": "keyword"
          }
        }
      },
      "wdt:P179": {
        "properties": {
          "@id": {
            "type": "keyword"
          },
          "de": {
            "type": "keyword"
          },
          "en": {
            "type": "keyword"
          },
          "fr": {
            "type": "keyword"
          },
          "it": {
            "type": "keyword"
          }
        }
      },
      "wdt:P276": {
        "properties": {
          "@id": {
            "type": "keyword"
          },
          "de": {
            "type": "keyword"
          },
          "en": {
            "type": "keyword"
          },
          "fr": {
            "type": "keyword"
          },
          "it": {
            "type": "keyword"
          }
        }
      },
      "wdt:P31": {
        "properties": {
          "@id": {
            "type": "keyword"
          },
          "de": {
            "type": "keyword"
          },
          "en": {
            "type": "keyword"
          },
          "fr": {
            "type": "keyword"
          },
          "it": {
            "type": "keyword"
          }
        }
      },
      "wdt:P36": {
        "properties": {
          "@id": {
            "type": "keyword"
          },
          "de": {
            "type": "keyword"
          },
          "en": {
            "type": "keyword"
          },
          "fr": {
            "type": "keyword"
          },
          "it": {
            "type": "keyword"
          }
        }
      },
      "wdt:P361": {
        "properties": {
          "@id": {
            "type": "keyword"
          },
          "de": {
            "type": "keyword"
          },
          "en": {
            "type": "keyword"
          },
          "fr": {
            "type": "keyword"
          },
          "it": {
            "type": "keyword"
          }
        }
      },
      "wdt:P421": {
        "type": "keyword"
      },
      "wdt:P495": {
        "properties": {
          "@id": {
            "type": "keyword"
          },
          "de": {
            "type": "keyword"
          },
          "en": {
            "type": "keyword"
          },
          "fr": {
            "type": "keyword"
          },
          "it": {
            "type": "keyword"
          }
        }
      },
      "wdt:P527": {
        "properties": {
          "@id": {
            "type": "keyword"
          },
          "de": {
            "type": "keyword"
          },
          "en": {
            "type": "keyword"
          },
          "fr": {
            "type": "keyword"
          },
          "it": {
            "type": "keyword"
          }
        }
      },
      "wdt:P710": {
        "properties": {
          "@id": {
            "type": "keyword"
          },
          "de": {
            "type": "keyword"
          },
          "en": {
            "type": "keyword"
          },
          "fr": {
            "type": "keyword"
          },
          "it": {
            "type": "keyword"
          }
        }
      },
      "wdt:P2348": {
        "properties": {
          "@id": {
            "type": "keyword"
          },
          "de": {
            "type": "keyword"
          },
          "en": {
            "type": "keyword"
          },
          "fr": {
            "type": "keyword"
          },
          "it": {
            "type": "keyword"
          }
        }
      }
    }
  }
}