{
  "settings": {
    "number_of_replicas": 1,
    "number_of_shards": 4
  },
  "mappings": {
    "properties": {
      "@id": {
        "type": "keyword"
      },
      "owl:sameAs": {
        "type": "keyword"
      }
    }
  }
}