{
  "properties": {
    "@context": {
      "type": "keyword",
      "index": false
    },
    "@id": {
      "type": "keyword"
    },
    "@type": {
      "type": "keyword"
    },
    "owl:sameAs": {
      "type": "keyword"
    },
    "wdt:P17": {
      "type": "keyword"
    },
    "wdt:P18": {
      "type": "keyword"
    },
    "wdt:P31": {
      "type": "keyword"
    },
    "wdt:P155": {
      "type": "keyword"
    },
    "wdt:P156": {
      "type": "keyword"
    },
    "wdt:P179": {
      "type": "keyword"
    },
    "wdt:P214": {
      "type": "keyword"
    },
    "wdtn:P214": {
      "type": "keyword"
    },
    "wdt:P227": {
      "type": "keyword"
    },
    "wdtn:P227": {
      "type": "keyword"
    },
    "wdt:P244": {
      "type": "keyword"
    },
    "wdtn:P244": {
      "type": "keyword"
    },
    "wdt:P276": {
      "type": "keyword"
    },
    "wdt:P361": {
      "type": "keyword"
    },
    "wdt:P373": {
      "type": "keyword"
    },
    "wdt:P393": {
      "type": "text",
      "fields": {
        "num": {
          "type": "short",
          "ignore_malformed": true
        }
      }
    },
    "wdt:P527": {
      "type": "keyword"
    },
    "wdt:P571": {
      "type": "date",
      "ignore_malformed": true
    },
    "wdt:P580": {
      "type": "date",
      "ignore_malformed": true
    },
    "wdt:P582": {
      "type": "date",
      "ignore_malformed": true
    },
    "wdt:P585": {
      "type": "date",
      "ignore_malformed": true
    },
    "wdt:P625": {
      "type": "keyword"
    },
    "wdt:P664": {
      "type": "keyword"
    },
    "wdt:P710": {
      "type": "keyword"
    },
    "wdt:P856": {
      "type": "keyword"
    },
    "wdt:P973": {
      "type": "keyword"
    },
    "wdt:P1132": {
      "type": "long",
      "ignore_malformed": true
    },
    "wdt:P2348": {
      "type": "keyword"
    },
    "schema:description": {
      "properties": {
        "de": {
          "type": "text",
          "fields": {
            "keyword": {
              "type": "keyword",
              "ignore_above": 256
            }
          }
        },
        "en": {
          "type": "text",
          "fields": {
            "keyword": {
              "type": "keyword",
              "ignore_above": 256
            }
          }
        },
        "fr": {
          "type": "text",
          "fields": {
            "keyword": {
              "type": "keyword",
              "ignore_above": 256
            }
          }
        },
        "it": {
          "type": "text",
          "fields": {
            "keyword": {
              "type": "keyword",
              "ignore_above": 256
            }
          }
        }
      }
    },
    "schema:name": {
      "properties": {
        "de": {
          "type": "text",
          "fields": {
            "keyword": {
              "type": "keyword",
              "ignore_above": 256
            }
          }
        },
        "en": {
          "type": "text",
          "fields": {
            "keyword": {
              "type": "keyword",
              "ignore_above": 256
            }
          }
        },
        "fr": {
          "type": "text",
          "fields": {
            "keyword": {
              "type": "keyword",
              "ignore_above": 256
            }
          }
        },
        "it": {
          "type": "text",
          "fields": {
            "keyword": {
              "type": "keyword",
              "ignore_above": 256
            }
          }
        }
      }
    },
    "skos:altLabel": {
      "properties": {
        "de": {
          "type": "text",
          "fields": {
            "keyword": {
              "type": "keyword",
              "ignore_above": 256
            }
          }
        },
        "en": {
          "type": "text",
          "fields": {
            "keyword": {
              "type": "keyword",
              "ignore_above": 256
            }
          }
        },
        "fr": {
          "type": "text",
          "fields": {
            "keyword": {
              "type": "keyword",
              "ignore_above": 256
            }
          }
        },
        "it": {
          "type": "text",
          "fields": {
            "keyword": {
              "type": "keyword",
              "ignore_above": 256
            }
          }
        }
      }
    }
  }
}