{
  "settings": {
    "number_of_replicas": 1,
    "number_of_shards": 4
  },
  "mappings": {
    "date_detection": false,
    "properties": {
      "@id": {
        "type": "keyword"
      },
      "@context": {
        "type": "keyword",
        "index": false
      },
      "@type": {
        "type": "keyword"
      }
    }
  }
}